xwMOOC R Meetup 1회차
…
$test
[1]  9 11

$train
[1] 23 11

1단계 기본기능 소개

Partitioning and sampling

# bootstrap
boot <- bootstrap(mtcars, 100)
boot

# A tibble: 100 x 2
            strap   .id
           <list> <chr>
 1 <S3: resample>   001
 2 <S3: resample>   002
 3 <S3: resample>   003
 4 <S3: resample>   004
 5 <S3: resample>   005
 6 <S3: resample>   006
 7 <S3: resample>   007
 8 <S3: resample>   008
 9 <S3: resample>   009
10 <S3: resample>   010
# ... with 90 more rows
…
[1] 25 11

dim(cv1$test[[1]])

[1]  7 11

1단계 기본기능 소개

Partitioning and sampling

# Monte Carlo cross-validation
cv2 <- crossv_mc(mtcars, 100)
cv2

# A tibble: 100 x 3
            train           test   .id
           <list>         <list> <chr>
 1 <S3: resample> <S3: resample>   001
 2 <S3: resample> <S3: resample>   002
 3 <S3: resample> <S3: resample>   003
 4 <S3: resample> <S3: resample>   004
 5 <S3: resample> <S3: resample>   005
 6 <S3: resample> <S3: resample>   006
 7 <S3: resample> <S3: resample>   007
 8 <S3: resample> <S3: resample>   008
 9 <S3: resample> <S3: resample>   009
10 <S3: resample> <S3: resample>   010
# ... with 90 more rows
…
1단계 기본기능 소개

Interacting with models

#A set of functions let you seamlessly add predictions and residuals as additional columns to an existing data frame:
df <- tibble::data_frame(
  x = sort(runif(100)),
  y = 5 * x + 0.5 * x ^ 2 + 3 + rnorm(length(x))
)

mod <- lm(y ~ x, data = df)
df %>% add_predictions(mod)

# A tibble: 100 x 3
            x         y     pred
        <dbl>     <dbl>    <dbl>
 1 0.02787865 4.4327339 2.889603
 2 0.03172051 4.5137673 2.912610
 3 0.04114398 4.4638091 2.969043
 4 0.04275537 2.8447463 2.978692
 5 0.05937878 1.9045592 3.078242
 6 0.09950232 3.2357947 3.318522
 7 0.10033627 3.8120150 3.323516
 8 0.10049645 0.9875091 3.324475
 9 0.10871680 3.6201940 3.373703
10 0.12016128 5.4635731 3.442238
# ... with 90 more rows

df %>% add_residuals(mod)

# A tibble: 100 x 3
            x         y       resid
        <dbl>     <dbl>       <dbl>
 1 0.02787865 4.4327339  1.54313080
 2 0.03172051 4.5137673  1.60115716
 3 0.04114398 4.4638091  1.49476650
 4 0.04275537 2.8447463 -0.13394613
 5 0.05937878 1.9045592 -1.17368270
 6 0.09950232 3.2357947 -0.08272739
 7 0.10033627 3.8120150  0.48849883
 8 0.10049645 0.9875091 -2.33696630
 9 0.10871680 3.6201940  0.24649098
10 0.12016128 5.4635731  2.02133470
# ... with 90 more rows

1단계 기본기능 소개

Interacting with models

#For visualization purposes it is often useful to use an evenly spaced grid of points from the data:
data_grid(mtcars, wt = seq_range(wt, 10), cyl, vs)

# A tibble: 60 x 3
         wt   cyl    vs
      <dbl> <dbl> <dbl>
 1 1.513000     4     0
 2 1.513000     4     1
 3 1.513000     6     0
 4 1.513000     6     1
 5 1.513000     8     0
 6 1.513000     8     1
 7 1.947556     4     0
 8 1.947556     4     1
 9 1.947556     6     0
10 1.947556     6     1
# ... with 50 more rows

# For continuous variables, seq_range is useful
mtcars_mod <- lm(mpg ~ wt + cyl + vs, data = mtcars)
data_grid(mtcars, wt = seq_range(wt, 10), cyl, vs) %>% add_predictions(mtcars_mod)

# A tibble: 60 x 4
         wt   cyl    vs     pred
      <dbl> <dbl> <dbl>    <dbl>
 1 1.513000     4     0 28.37790
 2 1.513000     4     1 28.90207
 3 1.513000     6     0 25.64969
 4 1.513000     6     1 26.17386
 5 1.513000     8     0 22.92148
 6 1.513000     8     1 23.44566
 7 1.947556     4     0 26.96717
 8 1.947556     4     1 27.49134
 9 1.947556     6     0 24.23896
10 1.947556     6     1 24.76314
# ... with 50 more rows
…
